[
  {
    "nama": "Toyota Veloz",
    "harga": "100000",
    "ukuran": "medium",
    "image": "img/Group 16.png"
  },
  {
    "nama": "Toyota Avanza",
    "harga": "100000",
    "ukuran": "medium",
    "image": "img/Group 16.png"
  },
  {
    "nama": "Honda BRV",
    "harga": "100000",
    "ukuran": "medium",
    "image": "img/Group 16.png"
  },
  {
    "nama": "Honda HRV",
    "harga": "100000",
    "ukuran": "medium",
    "image": "img/Group 16.png"
  }
]
